{
    "items": [
        {
            "id": 9,
            "link": "/media/id",
            "tag": "кейсы",
            "img": "/uploads/img/media-item.jpg",
            "title": "RUBICON. Рожденный бороздить океаны",
            "text":
                "Экспедиционный траулер RUBICON — самый мощный представитель модельного ряда Real Ships. Эта яхта океанского класса обеспечивает самые широкие возможности в любых путешествиях и экспедициях...",
            "date": "18 сентября 2021"
        },
        {
            "id": 10,
            "link": "/media/id",
            "tag": "кейсы",
            "img": "/uploads/img/media-item.jpg",
            "title": "RUBICON. Рожденный бороздить океаны",
            "text":
                "Экспедиционный траулер RUBICON — самый мощный представитель модельного ряда Real Ships. Эта яхта океанского класса обеспечивает самые широкие возможности в любых путешествиях и экспедициях...",
            "date": "18 сентября 2021"
        },
        {
            "id": 11,
            "link": "/media/id",
            "tag": "кейсы",
            "img": "/uploads/img/media-item.jpg",
            "title": "RUBICON. Рожденный бороздить океаны",
            "text":
                "Экспедиционный траулер RUBICON — самый мощный представитель модельного ряда Real Ships. Эта яхта океанского класса обеспечивает самые широкие возможности в любых путешествиях и экспедициях...",
            "date": "18 сентября 2021"
        }
        
    
    ],
    "pagination": {
        "currentPage": 2,
        "pageCount": 2,
        "totalCount": 16
    }
}